…
``` r
disc1 %>%
  add_discriminator_auc() %>%
  add_specks() %>%
  add_pmse() %>%
  add_pmse_ratio(times = 25)
```

    $combined_data
    # A tibble: 666 × 8
       .source_label species island    sex    bill_length_mm bill_depth_mm
       <fct>         <fct>   <fct>     <fct>           <dbl>         <dbl>
     1 original      Adelie  Torgersen male             39.1          18.7
     2 original      Adelie  Torgersen female           39.5          17.4
     3 original      Adelie  Torgersen female           40.3          18  
     4 original      Adelie  Torgersen female           36.7          19.3
     5 original      Adelie  Torgersen male             39.3          20.6
     6 original      Adelie  Torgersen female           38.9          17.8
     7 original      Adelie  Torgersen male             39.2          19.6
     8 original      Adelie  Torgersen female           41.1          17.6
     9 original      Adelie  Torgersen male             38.6          21.2
    10 original      Adelie  Torgersen male             34.6          21.1
    # ℹ 656 more rows
    # ℹ 2 more variables: flipper_length_mm <dbl>, body_mass_g <dbl>

    $propensities
    # A tibble: 666 × 10
       .pred_synthetic .source_label .sample  species island    sex   bill_length_mm
                 <dbl> <fct>         <chr>    <fct>   <fct>     <fct>          <dbl>
     1           0.294 original      training Adelie  Torgersen male            39.1
     2           0.294 original      testing  Adelie  Torgersen fema…           39.5
     3           0.294 original      testing  Adelie  Torgersen fema…           40.3
     4           0.6   original      training Adelie  Torgersen fema…           36.7
     5           0.294 original      testing  Adelie  Torgersen male            39.3
     6           0.294 original      training Adelie  Torgersen fema…           38.9
     7           0.294 original      training Adelie  Torgersen male            39.2
     8           0.294 original      training Adelie  Torgersen fema…           41.1
     9           0.294 original      training Adelie  Torgersen male            38.6
    10           0.6   original      testing  Adelie  Torgersen male            34.6
    # ℹ 656 more rows
    # ℹ 3 more variables: bill_depth_mm <dbl>, flipper_length_mm <dbl>,
    #   body_mass_g <dbl>
…
    Warning: package 'Matrix' was built under R version 4.2.3

``` r
# calculate metrics
disc2 %>%
  add_discriminator_auc() %>%
  add_specks() %>%
  add_pmse() %>%
  add_pmse_ratio(times = 25)
```

    $combined_data
    # A tibble: 666 × 8
       .source_label species island    sex    bill_length_mm bill_depth_mm
       <fct>         <fct>   <fct>     <fct>           <dbl>         <dbl>
     1 original      Adelie  Torgersen male             39.1          18.7
     2 original      Adelie  Torgersen female           39.5          17.4
     3 original      Adelie  Torgersen female           40.3          18  
     4 original      Adelie  Torgersen female           36.7          19.3
     5 original      Adelie  Torgersen male             39.3          20.6
     6 original      Adelie  Torgersen female           38.9          17.8
     7 original      Adelie  Torgersen male             39.2          19.6
     8 original      Adelie  Torgersen female           41.1          17.6
     9 original      Adelie  Torgersen male             38.6          21.2
    10 original      Adelie  Torgersen male             34.6          21.1
    # ℹ 656 more rows
    # ℹ 2 more variables: flipper_length_mm <dbl>, body_mass_g <dbl>

    $propensities
    # A tibble: 666 × 10
       .pred_synthetic .source_label .sample  species island    sex   bill_length_mm
                 <dbl> <fct>         <chr>    <fct>   <fct>     <fct>          <dbl>
     1             0.5 original      training Adelie  Torgersen male            39.1
     2             0.5 original      training Adelie  Torgersen fema…           39.5
     3             0.5 original      training Adelie  Torgersen fema…           40.3
     4             0.5 original      testing  Adelie  Torgersen fema…           36.7
     5             0.5 original      testing  Adelie  Torgersen male            39.3
     6             0.5 original      training Adelie  Torgersen fema…           38.9
     7             0.5 original      training Adelie  Torgersen male            39.2
     8             0.5 original      training Adelie  Torgersen fema…           41.1
     9             0.5 original      training Adelie  Torgersen male            38.6
    10             0.5 original      testing  Adelie  Torgersen male            34.6
    # ℹ 656 more rows
    # ℹ 3 more variables: bill_depth_mm <dbl>, flipper_length_mm <dbl>,
    #   body_mass_g <dbl>
…
### Grouping

Many utility metrics include a `group_by` argument to group the metrics
by group during calculation. For example, this code calculates moments
by species.

``` r
util_moments(
  postsynth = penguins_postsynth, 
  data = penguins_conf,
  group_by = species
)
```

    # A tibble: 60 × 7
       species   variable       statistic original synthetic difference
       <fct>     <fct>          <fct>        <dbl>     <dbl>      <dbl>
     1 Adelie    bill_length_mm count      146       153          7    
     2 Chinstrap bill_length_mm count       68        78         10    
     3 Gentoo    bill_length_mm count      119       102        -17    
     4 Adelie    bill_length_mm mean        38.8      38.5       -0.294
     5 Chinstrap bill_length_mm mean        48.8      47.3       -1.56 
     6 Gentoo    bill_length_mm mean        47.6      48.0        0.475
     7 Adelie    bill_length_mm sd           2.66      2.93       0.267
     8 Chinstrap bill_length_mm sd           3.34      3.07      -0.273
     9 Gentoo    bill_length_mm sd           3.11      3.40       0.299
    10 Adelie    bill_length_mm skewness     0.156     0.505      0.349
    # ℹ 50 more rows
    # ℹ 1 more variable: proportion_difference <dbl>
…
